Tools for Working with Hospital Readmissions Data • readmit
…
Analyzing hospital reports

Note: CMS changed the format of Hospital-Specific Reports (HSRs) for FY2026 (see here). The current HSR functions support Excel-based formats through FY2025.

CMS sends out Hospital-Specific Reports (HSR) each program year detailing the calculations of the payment reduction for the upcoming fiscal year (hospitals are given a 1-month period to review and submit corrections, the dates of which can be accessed with hrrp_review_periods). These reports contain the penalty amount down to the individual, line-item discharges that were included in the program. The package functions prefixed like hsr_* are meant to be used with them. For example, we can use the hsr_discharges function to extract discharge-level data for the heart failure cohort included in the readmission denominator into a clean data frame:

# Mock report from QualityNet
my_hsr <- hsr_mock_reports("FY2025_HRRP_MockHSR.xlsx")

hsr_discharges(
  file = my_hsr,
  cohort = "HF",
  eligible_only = TRUE
)
#> # A tibble: 25 × 17
#>    `ID Number` MBI         `Medical Record Number` `Beneficiary DOB`
#>          <int> <chr>       <chr>                   <chr>            
#>  1           1 9AA9AA9AA99 99999A                  99/99/9999       
#>  2           2 9AA9AA9AA99 99999A                  99/99/9999       
#>  3           3 9AA9AA9AA99 99999A                  99/99/9999       
#>  4           4 9AA9AA9AA99 99999A                  99/99/9999       
#>  5           5 9AA9AA9AA99 99999A                  99/99/9999       
#>  6           6 9AA9AA9AA99 99999A                  99/99/9999       
#>  7           7 9AA9AA9AA99 99999A                  99/99/9999       
#>  8           8 9AA9AA9AA99 99999A                  99/99/9999       
#>  9           9 9AA9AA9AA99 99999A                  99/99/9999       
#> 10          10 9AA9AA9AA99 99999A                  99/99/9999       
#> # ℹ 15 more rows
#> # ℹ 13 more variables: `Admission Date of Index Stay` <chr>,
#> #   `Discharge Date of Index Stay` <chr>,
#> #   `Cohort Inclusion/Exclusion Indicator` <chr>, `Index Stay (Yes/No)` <chr>,
#> #   `Principal Discharge Diagnosis of Index Stay` <chr>,
#> #   `Discharge Destination` <chr>,
#> #   `Unplanned Readmission within 30 Days (Yes/No) [a]` <chr>, …

We could also extract the risk factors for each patient used in the statistical models developed by CMS to estimate adjusted readmission risk:

hsr_discharges(
  file = my_hsr,
  cohort = "HF",
  eligible_only = TRUE,
  risk_factors = TRUE,
  discharge_phi = FALSE
)
#> # A tibble: 25 × 39
#>    `ID Number` `Years Over 65 (continuous)`  Male History of Coronary Artery B…¹
#>          <int>                        <dbl> <dbl>                          <dbl>
#>  1           1                            8     1                              0
#>  2           2                           25     1                              1
#>  3           3                            9     0                              0
#>  4           4                            9     0                              0
#>  5           5                           30     0                              0
#>  6           6                           13     0                              0
#>  7           7                           12     1                              1
#>  8           8                            7     1                              1
#>  9           9                           25     1                              0
#> 10          10                           22     0                              0
#> # ℹ 15 more rows
#> # ℹ abbreviated name: ¹​`History of Coronary Artery Bypass Graft (CABG) Surgery`
#> # ℹ 35 more variables: `History of COVID-19` <dbl>,
#> #   `Metastatic Cancer and Acute Leukemia` <dbl>, Cancer <dbl>,
#> #   `Diabetes Mellitus (DM) or DM Complications` <dbl>,
#> #   `Protein-Calorie Malnutrition` <dbl>,
#> #   `Other Significant Endocrine and Metabolic Disorders; Disorders of Fluid/Electrolyte/Acid-base Balance` <dbl>, …

We could then choose to extract the actual model coefficients (weights) that get applied to the patient risk factors:

hsr_coefficients(
  file = my_hsr,
  cohort = "HF"
)
#> # A tibble: 40 × 2
#>    Factor                                                                  Value
#>    <chr>                                                                   <dbl>
#>  1 Years Over 65 (continuous)                                           -0.00589
#>  2 Male                                                                 -0.0359 
#>  3 History of Coronary Artery Bypass Graft (CABG) Surgery                0.0199 
#>  4 History of COVID-19                                                  -0.00239
#>  5 Metastatic Cancer and Acute Leukemia                                  0.149  
#>  6 Cancer                                                                0.0126 
#>  7 Diabetes Mellitus (DM) or DM Complications                            0.0968 
#>  8 Protein-Calorie Malnutrition                                          0.0856 
#>  9 Other Significant Endocrine and Metabolic Disorders; Disorders of F…  0.163  
#> 10 Liver or Biliary Disease                                              0.0865 
#> # ℹ 30 more rows

These tables can be joined together and each patient’s readmission risk that CMS used can be computed and analyzed. Or, we can use the hsr_readmission_risks() function to do this for us:

hsr_readmission_risks(
  file = my_hsr,
  cohort = "HF"
)
#> # A tibble: 25 × 3
#>    `ID Number` Predicted Expected
#>          <int>     <dbl>    <dbl>
#>  1           1    0.258    0.264 
#>  2           2    0.186    0.192 
#>  3           3    0.184    0.189 
#>  4           4    0.188    0.193 
#>  5           5    0.0857   0.0885
#>  6           6    0.133    0.138 
#>  7           7    0.110    0.113 
#>  8           8    0.183    0.188 
#>  9           9    0.163    0.168 
#> 10          10    0.179    0.184 
#> # ℹ 15 more rows
…
Then we can choose a topic (or topics) we want to find datasets for, and extract their metadata with pdc_datasets():

hospital_data <- pdc_datasets("Hospitals")
hospital_data
#> # A tibble: 69 × 7
#>    datasetid topic     title       description issued     modified   downloadurl
#>    <chr>     <chr>     <chr>       <chr>       <date>     <date>     <chr>      
#>  1 axe7-s95e Hospitals Ambulatory… This file … 2025-10-01 2025-10-01 https://da…
#>  2 wue8-3vwe Hospitals Ambulatory… This file … 2025-10-01 2025-10-01 https://da…
#>  3 4jcv-atw7 Hospitals Ambulatory… A list of … 2025-10-01 2025-10-01 https://da…
#>  4 hbf-map   Hospitals Birthing F… A list of … 2025-07-09 2025-10-14 https://da…
#>  5 muwa-iene Hospitals CMS Medica… This data … 2020-12-10 2025-10-14 https://da…
#>  6 ynj2-r877 Hospitals Complicati… Complicati… 2023-07-05 2025-10-20 https://da…
#>  7 qqw3-t4ie Hospitals Complicati… Complicati… 2020-12-10 2025-10-14 https://da…
#>  8 bs2r-24vh Hospitals Complicati… Complicati… 2020-12-10 2025-10-14 https://da…
#>  9 jfnd-nl7s Hospitals Complicati… Prospectiv… 2024-07-31 2025-10-14 https://da…
#> 10 z8ax-x9j1 Hospitals Complicati… Prospectiv… 2024-07-31 2025-10-14 https://da…
#> # ℹ 59 more rows
…
Once we find the dataset we want, we can take note of the datasetid, and use the pdc_read() function to import it:

hrrp_data <- pdc_read(readmission_data$datasetid)
#> Rows: 18510 Columns: 12
#> ── Column specification ────────────────────────────────────────────────────────
#> Delimiter: ","
#> chr (11): Facility Name, Facility ID, State, Measure Name, Number of Dischar...
#> dbl  (1): Footnote
#> 
#> ℹ Use `spec()` to retrieve the full column specification for this data.
#> ℹ Specify the column types or set `show_col_types = FALSE` to quiet this message.
hrrp_data
#> # A tibble: 18,510 × 12
#>    `Facility Name`     `Facility ID` State `Measure Name` `Number of Discharges`
#>    <chr>               <chr>         <chr> <chr>          <chr>                 
#>  1 SOUTHEAST HEALTH M… 010001        AL    READM-30-AMI-… 296                   
#>  2 SOUTHEAST HEALTH M… 010001        AL    READM-30-CABG… 151                   
#>  3 SOUTHEAST HEALTH M… 010001        AL    READM-30-HF-H… 681                   
#>  4 SOUTHEAST HEALTH M… 010001        AL    READM-30-HIP-… N/A                   
#>  5 SOUTHEAST HEALTH M… 010001        AL    READM-30-PN-H… 490                   
#>  6 SOUTHEAST HEALTH M… 010001        AL    READM-30-COPD… 130                   
#>  7 MARSHALL MEDICAL C… 010005        AL    READM-30-CABG… N/A                   
#>  8 MARSHALL MEDICAL C… 010005        AL    READM-30-HIP-… N/A                   
#>  9 MARSHALL MEDICAL C… 010005        AL    READM-30-HF-H… 176                   
#> 10 MARSHALL MEDICAL C… 010005        AL    READM-30-PN-H… 305                   
#> # ℹ 18,500 more rows
#> # ℹ 7 more variables: Footnote <dbl>, `Excess Readmission Ratio` <chr>,
#> #   `Predicted Readmission Rate` <chr>, `Expected Readmission Rate` <chr>,
#> #   `Number of Readmissions` <chr>, `Start Date` <chr>, `End Date` <chr>
…
