…
## Examples

``` r
# Access a report
my_report <- hsr_mock_reports("FY2025_HRRP_MockHSR.xlsx")

# All discharges
hsr_extract_discharges(my_report, "HF")
#> # A tibble: 30 × 17
#>    `ID Number` MBI         `Medical Record Number` `Beneficiary DOB`
#>          <int> <chr>       <chr>                   <chr>            
#>  1           1 9AA9AA9AA99 99999A                  99/99/9999       
#>  2           2 9AA9AA9AA99 99999A                  99/99/9999       
#>  3           3 9AA9AA9AA99 99999A                  99/99/9999       
#>  4           4 9AA9AA9AA99 99999A                  99/99/9999       
#>  5           5 9AA9AA9AA99 99999A                  99/99/9999       
#>  6           6 9AA9AA9AA99 99999A                  99/99/9999       
#>  7           7 9AA9AA9AA99 99999A                  99/99/9999       
#>  8           8 9AA9AA9AA99 99999A                  99/99/9999       
#>  9           9 9AA9AA9AA99 99999A                  99/99/9999       
#> 10          10 9AA9AA9AA99 99999A                  99/99/9999       
#> # ℹ 20 more rows
#> # ℹ 13 more variables: `Admission Date of Index Stay` <chr>,
#> #   `Discharge Date of Index Stay` <chr>,
#> #   `Cohort Inclusion/Exclusion Indicator` <chr>, `Index Stay (Yes/No)` <chr>,
#> #   `Principal Discharge Diagnosis of Index Stay` <chr>,
#> #   `Discharge Destination` <chr>,
#> #   `Unplanned \r\nReadmission within \r\n30 Days (Yes/No) [a]` <chr>, …


# Discharges eligible for HRRP
hsr_extract_discharges(my_report, "HF", eligible_only = TRUE)
#> # A tibble: 25 × 17
#>    `ID Number` MBI         `Medical Record Number` `Beneficiary DOB`
#>          <int> <chr>       <chr>                   <chr>            
#>  1           1 9AA9AA9AA99 99999A                  99/99/9999       
#>  2           2 9AA9AA9AA99 99999A                  99/99/9999       
#>  3           3 9AA9AA9AA99 99999A                  99/99/9999       
#>  4           4 9AA9AA9AA99 99999A                  99/99/9999       
#>  5           5 9AA9AA9AA99 99999A                  99/99/9999       
#>  6           6 9AA9AA9AA99 99999A                  99/99/9999       
#>  7           7 9AA9AA9AA99 99999A                  99/99/9999       
#>  8           8 9AA9AA9AA99 99999A                  99/99/9999       
#>  9           9 9AA9AA9AA99 99999A                  99/99/9999       
#> 10          10 9AA9AA9AA99 99999A                  99/99/9999       
#> # ℹ 15 more rows
#> # ℹ 13 more variables: `Admission Date of Index Stay` <chr>,
#> #   `Discharge Date of Index Stay` <chr>,
#> #   `Cohort Inclusion/Exclusion Indicator` <chr>, `Index Stay (Yes/No)` <chr>,
#> #   `Principal Discharge Diagnosis of Index Stay` <chr>,
#> #   `Discharge Destination` <chr>,
#> #   `Unplanned \r\nReadmission within \r\n30 Days (Yes/No) [a]` <chr>, …


# Only show risk factors for eligible discharges
hsr_extract_discharges(
   file = my_report,
   cohort = "HF",
   discharge_phi = FALSE,
   risk_factors = TRUE,
   eligible_only = TRUE
)
#> # A tibble: 25 × 39
#>    `ID Number` `Years Over 65 (continuous)`  Male History of Coronary Artery B…¹
#>          <int>                        <dbl> <dbl>                          <dbl>
#>  1           1                            8     1                              0
#>  2           2                           25     1                              1
#>  3           3                            9     0                              0
#>  4           4                            9     0                              0
#>  5           5                           30     0                              0
#>  6           6                           13     0                              0
#>  7           7                           12     1                              1
#>  8           8                            7     1                              1
#>  9           9                           25     1                              0
#> 10          10                           22     0                              0
#> # ℹ 15 more rows
#> # ℹ abbreviated name: ¹​`History of Coronary Artery Bypass Graft (CABG) Surgery`
#> # ℹ 35 more variables: `History of COVID-19` <dbl>,
#> #   `Metastatic Cancer and Acute Leukemia` <dbl>, Cancer <dbl>,
#> #   `Diabetes Mellitus (DM) or DM Complications` <dbl>,
#> #   `Protein-Calorie Malnutrition` <dbl>,
#> #   `Other Significant Endocrine and Metabolic Disorders; Disorders of Fluid/Electrolyte/\r\nAcid-base Balance` <dbl>, …
…
