…
## Examples

``` r
# Access a report
my_report <- hsr_mock_reports("FY2025_HRRP_MockHSR.xlsx")

# Compute readmission risks for HF discharges
hf_risks <- hsr_readmission_risks(my_report, "HF")
hf_risks
#> # A tibble: 25 × 3
#>    `ID Number` Predicted Expected
#>          <int>     <dbl>    <dbl>
#>  1           1    0.258    0.264 
#>  2           2    0.186    0.192 
#>  3           3    0.184    0.189 
#>  4           4    0.188    0.193 
#>  5           5    0.0857   0.0885
#>  6           6    0.133    0.138 
#>  7           7    0.110    0.113 
#>  8           8    0.183    0.188 
#>  9           9    0.163    0.168 
#> 10          10    0.179    0.184 
#> # ℹ 15 more rows
…
