Investigating a Hospital-Specific Report (HSR) • readmit
…
3. Discharges

Note: Because we are using mock reports, the dates in these files
are erroneous and thus R doesn’t interpret them as dates. However, your
hospital report has real dates and thus R should automatically parse
them as such.

The HSR also contains discharge-level data on the individual patients
that actually contributed to the program. There is a separate table/tab
for each of the cohorts. We can use the hsr_discharges()
function to import them for a specified cohort:

hsr_discharges(my_report, "COPD")
#> # A tibble: 21 × 17
#>    `ID Number` MBI         `Medical Record Number` `Beneficiary DOB`
#>          <int> <chr>       <chr>                   <chr>            
#>  1           1 9AA9AA9AA99 99999A                  99/99/9999       
#>  2           2 9AA9AA9AA99 99999A                  99/99/9999       
#>  3           3 9AA9AA9AA99 99999A                  99/99/9999       
#>  4           4 9AA9AA9AA99 99999A                  99/99/9999       
#>  5           5 9AA9AA9AA99 99999A                  99/99/9999       
#>  6           6 9AA9AA9AA99 99999A                  99/99/9999       
#>  7           7 9AA9AA9AA99 99999A                  99/99/9999       
#>  8           8 9AA9AA9AA99 99999A                  99/99/9999       
#>  9           9 9AA9AA9AA99 99999A                  99/99/9999       
#> 10          10 9AA9AA9AA99 99999A                  99/99/9999       
#> # ℹ 11 more rows
#> # ℹ 13 more variables: `Admission Date of Index Stay` <chr>,
#> #   `Discharge Date of Index Stay` <chr>,
#> #   `Cohort Inclusion/Exclusion Indicator` <chr>, `Index Stay (Yes/No)` <chr>,
#> #   `Principal Discharge Diagnosis of Index Stay` <chr>,
#> #   `Discharge Destination` <chr>,
#> #   `Unplanned Readmission within 30 Days (Yes/No) [a]` <chr>, …
…
4. Model Coefficients

The ERR is calculated based on an aggregated roll up of individual
adjusted readmission risks derived from a random-intercept logistic
regression model. The first row in the discharge table contains the
coefficients for this model. We can use the
hsr_coefficients() function to extract them:

copd_model <- hsr_coefficients(my_report, "COPD")
copd_model
#> # A tibble: 43 × 2
#>    Factor                                                                  Value
#>    <chr>                                                                   <dbl>
#>  1 Years Over 65 (continuous)                                           -0.00550
#>  2 History of Mechanical Ventilation                                     0.293  
#>  3 Sleep-Disordered Breathing                                           -0.0339 
#>  4 History of COVID-19                                                  -0.0200 
#>  5 Severe Infection; Other Infectious Diseases                           0.0381 
#>  6 Metastatic Cancer and Acute Leukemia                                  0.201  
#>  7 Lung and Other Severe Cancers                                         0.156  
#>  8 Lymphatic, Head and Neck, Brain, and Other Major Cancers; Breast, C… -0.00343
#>  9 Other Digestive and Urinary Neoplasms                                -0.0792 
#> 10 Diabetes Mellitus (DM) or DM Complications                            0.0891 
#> # ℹ 33 more rows
…
The hsr_dual_stays() function extracts the
discharge-level data corresponding to the numerator of the ratio:

hsr_dual_stays(my_report)
#> # A tibble: 186 × 6
#>    `ID Number` MBI         `Beneficiary DOB` `Admission Date` `Discharge Date`
#>          <int> <chr>       <chr>             <chr>            <chr>           
#>  1           1 9AA9AA9AA99 99/99/9999        99/99/9999       99/99/9999      
#>  2           2 9AA9AA9AA99 99/99/9999        99/99/9999       99/99/9999      
#>  3           3 9AA9AA9AA99 99/99/9999        99/99/9999       99/99/9999      
#>  4           4 9AA9AA9AA99 99/99/9999        99/99/9999       99/99/9999      
#>  5           5 9AA9AA9AA99 99/99/9999        99/99/9999       99/99/9999      
#>  6           6 9AA9AA9AA99 99/99/9999        99/99/9999       99/99/9999      
#>  7           7 9AA9AA9AA99 99/99/9999        99/99/9999       99/99/9999      
#>  8           8 9AA9AA9AA99 99/99/9999        99/99/9999       99/99/9999      
#>  9           9 9AA9AA9AA99 99/99/9999        99/99/9999       99/99/9999      
#> 10          10 9AA9AA9AA99 99/99/9999        99/99/9999       99/99/9999      
#> # ℹ 176 more rows
#> # ℹ 1 more variable: `Claim Type` <chr>
…
