…
*Note: Because we are using mock reports, the dates in these files are
erroneous and thus R doesn’t interpret them as dates. However, your
hospital report has real dates and thus R should automatically parse
them as such.*

The HSR also contains discharge-level data on the individual patients
that actually contributed to the program. There is a separate table/tab
for each of the cohorts. We can use the
[`hsr_discharges()`](https://centralstatz.github.io/readmit/reference/hsr_discharges.md)
function to import them for a specified cohort:

``` r
hsr_discharges(my_report, "COPD")
#> # A tibble: 21 × 17
#>    `ID Number` MBI         `Medical Record Number` `Beneficiary DOB`
#>          <int> <chr>       <chr>                   <chr>            
#>  1           1 9AA9AA9AA99 99999A                  99/99/9999       
#>  2           2 9AA9AA9AA99 99999A                  99/99/9999       
#>  3           3 9AA9AA9AA99 99999A                  99/99/9999       
#>  4           4 9AA9AA9AA99 99999A                  99/99/9999       
#>  5           5 9AA9AA9AA99 99999A                  99/99/9999       
#>  6           6 9AA9AA9AA99 99999A                  99/99/9999       
#>  7           7 9AA9AA9AA99 99999A                  99/99/9999       
#>  8           8 9AA9AA9AA99 99999A                  99/99/9999       
#>  9           9 9AA9AA9AA99 99999A                  99/99/9999       
#> 10          10 9AA9AA9AA99 99999A                  99/99/9999       
#> # ℹ 11 more rows
#> # ℹ 13 more variables: `Admission Date of Index Stay` <chr>,
#> #   `Discharge Date of Index Stay` <chr>,
#> #   `Cohort Inclusion/Exclusion Indicator` <chr>, `Index Stay (Yes/No)` <chr>,
#> #   `Principal Discharge Diagnosis of Index Stay` <chr>,
#> #   `Discharge Destination` <chr>,
#> #   `Unplanned Readmission within 30 Days (Yes/No) [a]` <chr>, …
```
…
### 4. Model Coefficients

The ERR is calculated based on an aggregated roll up of individual
adjusted readmission risks derived from a random-intercept logistic
regression model. The first row in the discharge table contains the
coefficients for this model. We can use the
[`hsr_coefficients()`](https://centralstatz.github.io/readmit/reference/hsr_coefficients.md)
function to extract them:

``` r
copd_model <- hsr_coefficients(my_report, "COPD")
copd_model
#> # A tibble: 43 × 2
#>    Factor                                                                  Value
#>    <chr>                                                                   <dbl>
#>  1 Years Over 65 (continuous)                                           -0.00550
#>  2 History of Mechanical Ventilation                                     0.293  
#>  3 Sleep-Disordered Breathing                                           -0.0339 
#>  4 History of COVID-19                                                  -0.0200 
#>  5 Severe Infection; Other Infectious Diseases                           0.0381 
#>  6 Metastatic Cancer and Acute Leukemia                                  0.201  
#>  7 Lung and Other Severe Cancers                                         0.156  
#>  8 Lymphatic, Head and Neck, Brain, and Other Major Cancers; Breast, C… -0.00343
#>  9 Other Digestive and Urinary Neoplasms                                -0.0792 
#> 10 Diabetes Mellitus (DM) or DM Complications                            0.0891 
#> # ℹ 33 more rows
```
…
The
[`hsr_dual_stays()`](https://centralstatz.github.io/readmit/reference/hsr_dual_stays.md)
function extracts the discharge-level data corresponding to the
numerator of the ratio:

``` r
hsr_dual_stays(my_report)
#> # A tibble: 186 × 6
#>    `ID Number` MBI         `Beneficiary DOB` `Admission Date` `Discharge Date`
#>          <int> <chr>       <chr>             <chr>            <chr>           
#>  1           1 9AA9AA9AA99 99/99/9999        99/99/9999       99/99/9999      
#>  2           2 9AA9AA9AA99 99/99/9999        99/99/9999       99/99/9999      
#>  3           3 9AA9AA9AA99 99/99/9999        99/99/9999       99/99/9999      
#>  4           4 9AA9AA9AA99 99/99/9999        99/99/9999       99/99/9999      
#>  5           5 9AA9AA9AA99 99/99/9999        99/99/9999       99/99/9999      
#>  6           6 9AA9AA9AA99 99/99/9999        99/99/9999       99/99/9999      
#>  7           7 9AA9AA9AA99 99/99/9999        99/99/9999       99/99/9999      
#>  8           8 9AA9AA9AA99 99/99/9999        99/99/9999       99/99/9999      
#>  9           9 9AA9AA9AA99 99/99/9999        99/99/9999       99/99/9999      
#> 10          10 9AA9AA9AA99 99/99/9999        99/99/9999       99/99/9999      
#> # ℹ 176 more rows
#> # ℹ 1 more variable: `Claim Type` <chr>
```
…
      # Import eligible discharges
      ~hsr_discharges(
        file = my_report,
        cohort = .x,
        eligible_only = TRUE
      ) |>

      # Keep the row identifiers
      dplyr::select(`ID Number`) |>

      # Add cohort identifier
      tibble::add_column(Cohort = .x)
    )
eligible_discharges
#> # A tibble: 122 × 2
#>    `ID Number` Cohort
#>          <int> <chr> 
#>  1           1 AMI   
#>  2           2 AMI   
#>  3           1 COPD  
#>  4           2 COPD  
#>  5           3 COPD  
#>  6           4 COPD  
#>  7           5 COPD  
#>  8           6 COPD  
#>  9           7 COPD  
#> 10           8 COPD  
#> # ℹ 112 more rows
```
…
#> # A tibble: 2 × 33
#>   `ID Number` `Years Over 65 (continuous)`  Male Anterior Myocardial Infarctio…¹
#>         <int>                        <dbl> <dbl>                           <dbl>
#> 1           1                           31     1                               0
#> 2           2                           27     1                               0
#> # ℹ abbreviated name: ¹​`Anterior Myocardial Infarction `
#> # ℹ 29 more variables: `Non-Anterior Location of Myocardial Infarction` <dbl>,
#> #   `History of Coronary Artery Bypass Graft (CABG) Surgery` <dbl>,
#> #   `History of Percutaneous Transluminal Coronary Angioplasty (PTCA)` <dbl>,
#> #   `History of COVID-19` <dbl>,
#> #   `Severe Infection; Other Infectious Diseases` <dbl>,
#> #   `Metastatic Cancer and Acute Leukemia` <dbl>, Cancer <dbl>, …
#> 
#> [[2]]
#> # A tibble: 21 × 42
#>    `ID Number` `Years Over 65 (continuous)` `History of Mechanical Ventilation`
#>          <int>                        <dbl>                               <dbl>
#>  1           1                            5                                   1
#>  2           2                            8                                   1
#>  3           3                           23                                   0
#>  4           4                           15                                   0
#>  5           5                            7                                   0
#>  6           6                            1                                   0
#>  7           7                           12                                   0
#>  8           8                           18                                   0
#>  9           9                            6                                   0
#> 10          10                           11                                   0
#> # ℹ 11 more rows
#> # ℹ 39 more variables: `Sleep-Disordered Breathing` <dbl>,
#> #   `History of COVID-19` <dbl>,
#> #   `Severe Infection; Other Infectious Diseases` <dbl>,
#> #   `Metastatic Cancer and Acute Leukemia` <dbl>,
#> #   `Lung and Other Severe Cancers` <dbl>,
#> #   `Lymphatic, Head and Neck, Brain, and Other Major Cancers; Breast, Colorectal and Other Cancers and Tumors; Other Respiratory and Heart Neoplasms` <dbl>, …
#> 
#> [[3]]
#> # A tibble: 30 × 39
#>    `ID Number` `Years Over 65 (continuous)`  Male History of Coronary Artery B…¹
#>          <int>                        <dbl> <dbl>                          <dbl>
#>  1           1                            8     1                              0
#>  2           2                           25     1                              1
#>  3           3                            9     0                              0
#>  4           4                            9     0                              0
#>  5           5                           30     0                              0
#>  6           6                           13     0                              0
#>  7           7                           12     1                              1
#>  8           8                            7     1                              1
#>  9           9                           25     1                              0
#> 10          10                           22     0                              0
#> # ℹ 20 more rows
#> # ℹ abbreviated name: ¹​`History of Coronary Artery Bypass Graft (CABG) Surgery`
#> # ℹ 35 more variables: `History of COVID-19` <dbl>,
#> #   `Metastatic Cancer and Acute Leukemia` <dbl>, Cancer <dbl>,
#> #   `Diabetes Mellitus (DM) or DM Complications` <dbl>,
#> #   `Protein-Calorie Malnutrition` <dbl>,
#> #   `Other Significant Endocrine and Metabolic Disorders; Disorders of Fluid/Electrolyte/Acid-base Balance` <dbl>, …
#> 
#> [[4]]
#> # A tibble: 45 × 43
#>    `ID Number` `Years Over 65 (continuous)`  Male History of Coronary Artery B…¹
#>          <int>                        <dbl> <dbl>                          <dbl>
#>  1           1                           13     0                              0
#>  2           2                           16     1                              0
#>  3           3                            6     1                              0
#>  4           4                           14     1                              0
#>  5           5                           16     1                              0
#>  6           6                           18     1                              0
#>  7           7                           15     1                              0
#>  8           8                           13     0                              0
#>  9           9                            9     0                              0
#> 10          10                            4     0                              0
#> # ℹ 35 more rows
#> # ℹ abbreviated name: ¹​`History of Coronary Artery Bypass Graft (CABG) Surgery`
#> # ℹ 39 more variables: `History of COVID-19` <dbl>,
#> #   `Severe Infection; Other Infectious Diseases` <dbl>,
#> #   `Septicemia, Sepsis, Systemic Inflammatory Response Syndrome/Shock` <dbl>,
#> #   `Metastatic Cancer and Acute Leukemia` <dbl>,
#> #   `Lung and Other Severe Cancers` <dbl>, `Lymphoma; Other Cancers` <dbl>, …
#> 
#> [[5]]
#> # A tibble: 51 × 35
#>    `ID Number` `Years Over 65 (continuous)`  Male Index Admissions with an Ele…¹
#>          <int>                        <dbl> <dbl>                          <dbl>
#>  1           1                            1     1                              0
#>  2           2                            7     1                              1
#>  3           3                            1     0                              0
#>  4           4                            6     1                              0
#>  5           5                            1     1                              0
#>  6           6                           11     1                              0
#>  7           7                           14     0                              0
#>  8           8                           16     0                              0
#>  9           9                            1     0                              0
#> 10          10                           16     0                              1
#> # ℹ 41 more rows
#> # ℹ abbreviated name: ¹​`Index Admissions with an Elective THA Procedure`
#> # ℹ 31 more variables: `Number of Procedures (two vs. one)` <dbl>,
#> #   `Other Congenital Deformity of Hip (Joint)` <dbl>,
#> #   `Post Traumatic Osteoarthritis` <dbl>, `History of COVID-19` <dbl>,
#> #   `Severe Infection; Other Infectious Diseases` <dbl>,
#> #   `Metastatic Cancer and Acute Leukemia` <dbl>, Cancer <dbl>, …
```
…
        # Send risk factors down the rows
        tidyr::pivot_longer(
          cols = -`ID Number`,
          names_to = "Factor",
          values_to = "Value"
        ) |>
        
        # Indicate cohort
        tibble::add_column(Cohort = .x)
      )
risk_factors
#> # A tibble: 5,689 × 4
#>    `ID Number` Factor                                               Value Cohort
#>          <int> <chr>                                                <dbl> <chr> 
#>  1           1 "Years Over 65 (continuous)"                            31 AMI   
#>  2           1 "Male"                                                   1 AMI   
#>  3           1 "Anterior Myocardial Infarction "                        0 AMI   
#>  4           1 "Non-Anterior Location of Myocardial Infarction"         0 AMI   
#>  5           1 "History of Coronary Artery Bypass Graft (CABG) Sur…     1 AMI   
#>  6           1 "History of Percutaneous Transluminal Coronary Angi…     0 AMI   
#>  7           1 "History of COVID-19"                                    0 AMI   
#>  8           1 "Severe Infection; Other Infectious Diseases"            1 AMI   
#>  9           1 "Metastatic Cancer and Acute Leukemia"                   0 AMI   
#> 10           1 "Cancer"                                                 0 AMI   
#> # ℹ 5,679 more rows
```
…
``` r
risk_factors <-
  risk_factors |>

    # Join to get eligible only
    dplyr::inner_join(
      y = eligible_discharges,
      by = 
        c(
          "ID Number",
          "Cohort"
        )
    )
risk_factors
#> # A tibble: 4,626 × 4
#>    `ID Number` Factor                                               Value Cohort
#>          <int> <chr>                                                <dbl> <chr> 
#>  1           1 "Years Over 65 (continuous)"                            31 AMI   
#>  2           1 "Male"                                                   1 AMI   
#>  3           1 "Anterior Myocardial Infarction "                        0 AMI   
#>  4           1 "Non-Anterior Location of Myocardial Infarction"         0 AMI   
#>  5           1 "History of Coronary Artery Bypass Graft (CABG) Sur…     1 AMI   
#>  6           1 "History of Percutaneous Transluminal Coronary Angi…     0 AMI   
#>  7           1 "History of COVID-19"                                    0 AMI   
#>  8           1 "Severe Infection; Other Infectious Diseases"            1 AMI   
#>  9           1 "Metastatic Cancer and Acute Leukemia"                   0 AMI   
#> 10           1 "Cancer"                                                 0 AMI   
#> # ℹ 4,616 more rows
```
…
        # Send risk factors down the rows
        tidyr::pivot_longer(
          cols = -`ID Number`,
          names_to = "Factor",
          values_to = "Value"
        ) |>
        
        # Indicate cohort
        tibble::add_column(Cohort = .x)
      )
risk_factors
#> # A tibble: 4,626 × 4
#>    `ID Number` Factor                                               Value Cohort
#>          <int> <chr>                                                <dbl> <chr> 
#>  1           1 "Years Over 65 (continuous)"                            31 AMI   
#>  2           1 "Male"                                                   1 AMI   
#>  3           1 "Anterior Myocardial Infarction "                        0 AMI   
#>  4           1 "Non-Anterior Location of Myocardial Infarction"         0 AMI   
#>  5           1 "History of Coronary Artery Bypass Graft (CABG) Sur…     1 AMI   
#>  6           1 "History of Percutaneous Transluminal Coronary Angi…     0 AMI   
#>  7           1 "History of COVID-19"                                    0 AMI   
#>  8           1 "Severe Infection; Other Infectious Diseases"            1 AMI   
#>  9           1 "Metastatic Cancer and Acute Leukemia"                   0 AMI   
#> 10           1 "Cancer"                                                 0 AMI   
#> # ℹ 4,616 more rows
```
…
  # Iterate each cohort
  purrr::map_df(

    # Import eligible discharges
    ~hsr_coefficients(
      file = my_report,
      cohort = .x
    ) |>
    
    # Indicate cohort
    tibble::add_column(Cohort = .x)
  )
model_weights
#> # A tibble: 225 × 3
#>    Factor                                                           Value Cohort
#>    <chr>                                                            <dbl> <chr> 
#>  1 "Years Over 65 (continuous)"                                   0.00765 AMI   
#>  2 "Male"                                                        -0.134   AMI   
#>  3 "Anterior Myocardial Infarction "                              0.271   AMI   
#>  4 "Non-Anterior Location of Myocardial Infarction"               0.0712  AMI   
#>  5 "History of Coronary Artery Bypass Graft (CABG) Surgery"       0.0233  AMI   
#>  6 "History of Percutaneous Transluminal Coronary Angioplasty (… -0.0218  AMI   
#>  7 "History of COVID-19"                                         -0.0676  AMI   
#>  8 "Severe Infection; Other Infectious Diseases"                  0.0832  AMI   
#>  9 "Metastatic Cancer and Acute Leukemia"                         0.226   AMI   
#> 10 "Cancer"                                                       0.0440  AMI   
#> # ℹ 215 more rows
```
…
        # Rename the column
        dplyr::rename(
          Weight = Value
        ),
      by = 
        c(
          "Cohort",
          "Factor"
        )
    )
risk_factors
#> # A tibble: 4,626 × 5
#>    `ID Number` Factor                                      Value Cohort   Weight
#>          <int> <chr>                                       <dbl> <chr>     <dbl>
#>  1           1 "Years Over 65 (continuous)"                   31 AMI     0.00765
#>  2           1 "Male"                                          1 AMI    -0.134  
#>  3           1 "Anterior Myocardial Infarction "               0 AMI     0.271  
#>  4           1 "Non-Anterior Location of Myocardial Infar…     0 AMI     0.0712 
#>  5           1 "History of Coronary Artery Bypass Graft (…     1 AMI     0.0233 
#>  6           1 "History of Percutaneous Transluminal Coro…     0 AMI    -0.0218 
#>  7           1 "History of COVID-19"                           0 AMI    -0.0676 
#>  8           1 "Severe Infection; Other Infectious Diseas…     1 AMI     0.0832 
#>  9           1 "Metastatic Cancer and Acute Leukemia"          0 AMI     0.226  
#> 10           1 "Cancer"                                        0 AMI     0.0440 
#> # ℹ 4,616 more rows
```
…
``` r
linear_predictors <-
  risk_factors |>

    # Compute weighted sum
    dplyr::summarize(
      LP = sum(Weight * Value),
      .by = 
        c(
          Cohort,
          `ID Number`
        )
    )
linear_predictors
#> # A tibble: 122 × 3
#>    Cohort `ID Number`    LP
#>    <chr>        <int> <dbl>
#>  1 AMI              1 1.92 
#>  2 AMI              2 0.749
#>  3 COPD             1 1.49 
#>  4 COPD             2 1.52 
#>  5 COPD             3 1.31 
#>  6 COPD             4 0.321
#>  7 COPD             5 0.258
#>  8 COPD             6 0.633
#>  9 COPD             7 0.841
#> 10 COPD             8 1.08 
#> # ℹ 112 more rows
```
…
